…
### También podemos usar

Requiere que se haya cargado ya la colección tidyverse

``` r
censo_myrtc %>% tibble
```

    ## # A tibble: 5,579 x 1
    ##    .$treeID $stemID $tag  $StemTag $sp   $quadrat   $gx   $gy $MeasureID
    ##       <int>   <int> <chr> <chr>    <chr> <chr>    <dbl> <dbl>      <int>
    ##  1       77       1 0000… ""       euge… 4914      997   291          48
    ##  2      905       1 0008… ""       euge… 4409      886.  191.        801
    ##  3     1253       5 0012… 1        euge… 4210      855.  203.       1092
    ##  4     1446       1 0014… ""       psid… 4114      821   294.       1273
    ##  5     1618       1 0016… ""       euge… 4007      806.  145.       1400
    ##  6     2113       1 0021… ""       euge… 3719      745.  394.       1802
    ##  7     2331       2 0023… 1        euge… 3613      720.  280.       1966
    ##  8     2456       1 0024… ""       euge… 3517      703.  354.       2073
    ##  9     2827       1 0028… ""       psid… 3314      664.  281.       2402
    ## 10     3993       1 0040… ""       euge… 2609      525   199.       3387
    ## # … with 5,569 more rows, and 21 more variables: $CensusID <int>,
    ## #   $dbh <dbl>, $pom <chr>, $hom <dbl>, $ExactDate <chr>, $DFstatus <chr>,
    ## #   $codes <chr>, $nostems <dbl>, $date <dbl>, $status <chr>, $agb <dbl>,
    ## #   $Latin <chr>, $Genus <chr>, $Species <chr>, $Family <chr>,
    ## #   $speciesID <int>, $authority <chr>, $IDlevel <chr>, $syn <chr>,
    ## #   $subsp <chr>, $quad1ha <dbl>

``` r
mc_myrtc %>% tibble
```

    ## # A tibble: 50 x 1
    ##    .$`Chamguava sc… $`Eugenia color… $`Eugenia galal… $`Eugenia nesio…
    ##               <dbl>            <dbl>            <dbl>            <dbl>
    ##  1                0                5               21                9
    ##  2                0                4               27               14
    ##  3                2                6               12               15
    ##  4                2               14               51                4
    ##  5                0               13               35                5
    ##  6                1                6               79               11
    ##  7                4                5               51               13
    ##  8                3                7               20               15
    ##  9                8                9               20                6
    ## 10                6               24               54               10
    ## # … with 40 more rows, and 3 more variables: $`Eugenia oerstediana` <dbl>,
    ## #   $`Myrcia gatunensis` <dbl>, $`Psidium friedrichsthalianum` <dbl>
…
