…
``` r
source('biodata/funciones.R')
```

### Cargar datos

``` r
load('biodata/Myrtaceae.Rdata')
load('biodata/matriz_ambiental.Rdata')
mi_fam <- mc_myrtc
bci_env_grid %>% tibble
```

    ## # A tibble: 50 x 1
    ##     .$id $categoria_de_e… $geologia $habitat $quebrada $heterogeneidad…
    ##    <dbl> <fct>            <fct>     <fct>    <fct>                <dbl>
    ##  1     1 c3               Tb        OldSlope Yes                 0.627 
    ##  2     2 c3               Tb        OldLow   Yes                 0.394 
    ##  3     3 c3               Tb        OldLow   No                  0     
    ##  4     4 c3               Tb        OldLow   No                  0     
    ##  5     5 c3               Tb        OldSlope No                  0.461 
    ##  6     6 c3               Tb        OldLow   No                  0.0768
    ##  7     7 c3               Tb        OldLow   Yes                 0.381 
    ##  8     8 c3               Tb        OldLow   Yes                 0.211 
    ##  9     9 c3               Tb        OldLow   No                  0     
    ## 10    10 c3               Tb        OldLow   No                  0     
    ## # … with 40 more rows, and 33 more variables: $UTM.EW <dbl>,
    ## #   $UTM.NS <dbl>, $geomorf_llanura_pct <dbl>, $geomorf_pico_pct <dbl>,
    ## #   $geomorf_interfluvio_pct <dbl>, $geomorf_hombrera_pct <dbl>,
    ## #   $`geomorf_espolón/gajo_pct` <dbl>, $geomorf_vertiente_pct <dbl>,
    ## #   $geomorf_vaguada_pct <dbl>, $geomorf_piedemonte_pct <dbl>,
    ## #   $geomorf_valle_pct <dbl>, $geomorf_sima_pct <dbl>, $Al <dbl>,
    ## #   $B <dbl>, $Ca <dbl>, $Cu <dbl>, $Fe <dbl>, $K <dbl>, $Mg <dbl>,
    ## #   $Mn <dbl>, $P <dbl>, $Zn <dbl>, $N <dbl>, $N.min. <dbl>, $pH <dbl>,
    ## #   $elevacion_media <dbl>, $pendiente_media <dbl>,
…
``` r
indices_env <- bind_cols(
  indices,
  bci_env_grid %>%
    select_if(is.numeric) %>%
    st_drop_geometry %>%
    select(-id) %>% 
    select(-matches('^geom.*pct$')))
indices_env %>% tibble
```

    ## # A tibble: 50 x 1
    ##     .$N0    $H  $Hb2   $N1 $N1b2   $N2    $J  $E10  $E20 $heterogeneidad…
    ##    <int> <dbl> <dbl> <dbl> <dbl> <dbl> <dbl> <dbl> <dbl>            <dbl>
    ##  1     5 1.45   2.09  4.27  4.27  3.65 0.902 0.854 0.729           0.627 
    ##  2     4 1.21   1.74  3.34  3.34  2.95 0.870 0.835 0.738           0.394 
    ##  3     6 1.45   2.09  4.25  4.25  3.65 0.808 0.708 0.609           0     
    ##  4     5 1.13   1.63  3.10  3.10  2.40 0.704 0.621 0.480           0     
    ##  5     4 1.20   1.73  3.32  3.32  2.96 0.865 0.830 0.739           0.461 
    ##  6     5 0.910  1.31  2.49  2.49  1.82 0.566 0.497 0.363           0.0768
    ##  7     6 1.35   1.95  3.87  3.87  2.98 0.756 0.645 0.497           0.381 
    ##  8     6 1.50   2.17  4.49  4.49  4.02 0.838 0.749 0.670           0.211 
    ##  9     6 1.62   2.33  5.04  5.04  4.46 0.903 0.840 0.743           0     
    ## 10     5 1.37   1.97  3.92  3.92  3.43 0.848 0.783 0.686           0     
    ## # … with 40 more rows, and 22 more variables: $UTM.EW <dbl>,
    ## #   $UTM.NS <dbl>, $Al <dbl>, $B <dbl>, $Ca <dbl>, $Cu <dbl>, $Fe <dbl>,
    ## #   $K <dbl>, $Mg <dbl>, $Mn <dbl>, $P <dbl>, $Zn <dbl>, $N <dbl>,
    ## #   $N.min. <dbl>, $pH <dbl>, $elevacion_media <dbl>,
    ## #   $pendiente_media <dbl>, $orientacion_media <dbl>,
    ## #   $curvatura_perfil_media <dbl>, $curvatura_tangencial_media <dbl>,
    ## #   $abundancia_global <dbl>, $riqueza_global <int>
…
