…
### Cargar datos

``` r
load('biodata/Myrtaceae.Rdata')
load('biodata/matriz_ambiental.Rdata')
mi_fam <- mc_myrtc
bci_env_grid %>% tibble
```

    ## # A tibble: 50 x 1
    ##     .$id $categoria_de_e… $geologia $habitat $quebrada $heterogeneidad…
    ##    <dbl> <fct>            <fct>     <fct>    <fct>                <dbl>
    ##  1     1 c3               Tb        OldSlope Yes                 0.627 
    ##  2     2 c3               Tb        OldLow   Yes                 0.394 
    ##  3     3 c3               Tb        OldLow   No                  0     
    ##  4     4 c3               Tb        OldLow   No                  0     
    ##  5     5 c3               Tb        OldSlope No                  0.461 
    ##  6     6 c3               Tb        OldLow   No                  0.0768
    ##  7     7 c3               Tb        OldLow   Yes                 0.381 
    ##  8     8 c3               Tb        OldLow   Yes                 0.211 
    ##  9     9 c3               Tb        OldLow   No                  0     
    ## 10    10 c3               Tb        OldLow   No                  0     
    ## # … with 40 more rows, and 33 more variables: $UTM.EW <dbl>,
    ## #   $UTM.NS <dbl>, $geomorf_llanura_pct <dbl>, $geomorf_pico_pct <dbl>,
    ## #   $geomorf_interfluvio_pct <dbl>, $geomorf_hombrera_pct <dbl>,
    ## #   $`geomorf_espolón/gajo_pct` <dbl>, $geomorf_vertiente_pct <dbl>,
    ## #   $geomorf_vaguada_pct <dbl>, $geomorf_piedemonte_pct <dbl>,
    ## #   $geomorf_valle_pct <dbl>, $geomorf_sima_pct <dbl>, $Al <dbl>,
    ## #   $B <dbl>, $Ca <dbl>, $Cu <dbl>, $Fe <dbl>, $K <dbl>, $Mg <dbl>,
    ## #   $Mn <dbl>, $P <dbl>, $Zn <dbl>, $N <dbl>, $N.min. <dbl>, $pH <dbl>,
    ## #   $elevacion_media <dbl>, $pendiente_media <dbl>,
…
``` r
beta_multiplicativa <- calcular_beta_multiplicativa(
  mc = mi_fam,
  orden = 0:20)
```

    ## Warning: Ignoring unknown aesthetics: y

``` r
beta_multiplicativa
```

    ## $beta_multiplicativa
    ## # A tibble: 21 x 3
    ##    orden  beta  error
    ##    <int> <dbl>  <dbl>
    ##  1     0  1.27 0.0133
    ##  2     1  1.20 0.0115
    ##  3     2  1.21 0.0135
    ##  4     3  1.24 0.0167
    ##  5     4  1.28 0.0192
    ##  6     5  1.33 0.0225
    ##  7     6  1.37 0.0268
    ##  8     7  1.40 0.0313
    ##  9     8  1.44 0.0304
    ## 10     9  1.47 0.0362
    ## # … with 11 more rows
    ## 
    ## $grafico
…
