…
Tercero, calculo la distancia euclídea.

``` r
mi_fam_t_chi_d <- dist(mi_fam_t_chi)
mi_fam_t_chi_d %>% tidy
```

    ## # A tibble: 21 x 3
    ##    item1                          item2                    distance
    ##    <fct>                          <fct>                       <dbl>
    ##  1 "Eugenia\ncoloradoensis"       "Chamguava\nschippii"       2.19 
    ##  2 "Eugenia\ngalalonensis"        "Chamguava\nschippii"       2.03 
    ##  3 "Eugenia\nnesiotica"           "Chamguava\nschippii"       2.08 
    ##  4 "Eugenia\noerstediana"         "Chamguava\nschippii"       2.08 
    ##  5 "Myrcia\ngatunensis"           "Chamguava\nschippii"       3.04 
    ##  6 "Psidium\nfriedrichsthalianum" "Chamguava\nschippii"       2.64 
    ##  7 "Eugenia\ngalalonensis"        "Eugenia\ncoloradoensis"    0.694
    ##  8 "Eugenia\nnesiotica"           "Eugenia\ncoloradoensis"    0.776
    ##  9 "Eugenia\noerstediana"         "Eugenia\ncoloradoensis"    0.792
    ## 10 "Myrcia\ngatunensis"           "Eugenia\ncoloradoensis"    2.14 
    ## # … with 11 more rows
…
En el mapa de calor **ordenado** (el de la derecha), se identifica al menos un patrón de dependencia entre las especies relacionadas en la diagonal desde *Chrysophyllum cainito* hasta *Trichilia pallida* (cuadros de color rosa centrales). También se observan las especies que no parecen asociarse con otras, situadas en los extremos de la diagonal, y relacionadas con otras por medio de valores pequeños de distancia (cuadros azules), como *Rauvolfia littoralis* y *Pouteria fossicola* y *Cedrela odorata*.

### Modo R para datos binarios (presencia/ausencia)

Arriba usé la distancia de Jaccard para evaluar asociación entre sitios. Dicha métrica también se puede usar para evaluar la distancia entre especies, usando como fuente la matriz de comunidad transpuesta convertida a binaria (presencia/ausencia)

``` r
mi_fam_t_jac <- vegdist(mi_fam_t, "jaccard", binary = TRUE)
mi_fam_t_jac %>% tidy
```

    ## # A tibble: 21 x 3
    ##    item1                          item2                    distance
    ##    <fct>                          <fct>                       <dbl>
    ##  1 "Eugenia\ncoloradoensis"       "Chamguava\nschippii"       0.5  
    ##  2 "Eugenia\ngalalonensis"        "Chamguava\nschippii"       0.5  
    ##  3 "Eugenia\nnesiotica"           "Chamguava\nschippii"       0.5  
    ##  4 "Eugenia\noerstediana"         "Chamguava\nschippii"       0.5  
    ##  5 "Myrcia\ngatunensis"           "Chamguava\nschippii"       0.649
    ##  6 "Psidium\nfriedrichsthalianum" "Chamguava\nschippii"       0.750
    ##  7 "Eugenia\ngalalonensis"        "Eugenia\ncoloradoensis"    0    
    ##  8 "Eugenia\nnesiotica"           "Eugenia\ncoloradoensis"    0    
    ##  9 "Eugenia\noerstediana"         "Eugenia\ncoloradoensis"    0    
    ## 10 "Myrcia\ngatunensis"           "Eugenia\ncoloradoensis"    0.5  
    ## # … with 11 more rows
…
``` r
env_num <- bci_env_grid %>%
  dplyr::select_if(is.numeric) %>%
  dplyr::select(-id, -matches('^U.*')) %>% 
  st_drop_geometry %>% 
  mutate(
    riqueza_mifam = specnumber(mc_myrtc),
    abundancia_mifam = rowSums(mc_myrtc)) %>% 
  rename_all(gsub, pattern = '_pct$', replacement = '') %>% 
  rename_all(gsub, pattern = '_| ', replacement = '\n')
env_num %>% tibble
```

    ## # A tibble: 50 x 1
    ##    .$`heterogeneid… $`geomorf\nllan… $`geomorf\npico` $`geomorf\ninte…
    ##               <dbl>            <dbl>            <dbl>            <dbl>
    ##  1           0.627             10.0              0                0.83
    ##  2           0.394             34.8              0                0.36
    ##  3           0                  0                0                0   
    ##  4           0                  0                0                0.16
    ##  5           0.461              2.58             0                0   
    ##  6           0.0768             0                0.17             3.01
    ##  7           0.381              0                0.53             2.87
    ##  8           0.211              0                0                0   
    ##  9           0                  0                0                0   
    ## 10           0                  1.03             0                0   
    ## # … with 40 more rows, and 29 more variables: $`geomorf\nhombrera` <dbl>,
    ## #   $`geomorf\nespolón/gajo` <dbl>, $`geomorf\nvertiente` <dbl>,
    ## #   $`geomorf\nvaguada` <dbl>, $`geomorf\npiedemonte` <dbl>,
    ## #   $`geomorf\nvalle` <dbl>, $`geomorf\nsima` <dbl>, $Al <dbl>, $B <dbl>,
    ## #   $Ca <dbl>, $Cu <dbl>, $Fe <dbl>, $K <dbl>, $Mg <dbl>, $Mn <dbl>,
    ## #   $P <dbl>, $Zn <dbl>, $N <dbl>, $N.min. <dbl>, $pH <dbl>,
    ## #   $`elevacion\nmedia` <dbl>, $`pendiente\nmedia` <dbl>,
    ## #   $`orientacion\nmedia` <dbl>, $`curvatura\nperfil\nmedia` <dbl>,
    ## #   $`curvatura\ntangencial\nmedia` <dbl>, $`abundancia\nglobal` <dbl>,
…
