…
    ##               nombre_original colnames.mi_fam.
    ## 1          Chamguava schippii         Chamschi
    ## 2       Eugenia coloradoensis         Eugecolo
    ## 3        Eugenia galalonensis         Eugegala
    ## 4           Eugenia nesiotica         Eugenesi
    ## 5         Eugenia oerstediana         Eugeoers
    ## 6           Myrcia gatunensis         Myrcgatu
    ## 7 Psidium friedrichsthalianum         Psidfrie

``` r
bci_env_grid %>% tibble
```

    ## # A tibble: 50 x 1
    ##     .$id $categoria_de_e… $geologia $habitat $quebrada $heterogeneidad…
    ##    <dbl> <fct>            <fct>     <fct>    <fct>                <dbl>
    ##  1     1 c3               Tb        OldSlope Yes                 0.627 
    ##  2     2 c3               Tb        OldLow   Yes                 0.394 
    ##  3     3 c3               Tb        OldLow   No                  0     
    ##  4     4 c3               Tb        OldLow   No                  0     
    ##  5     5 c3               Tb        OldSlope No                  0.461 
    ##  6     6 c3               Tb        OldLow   No                  0.0768
    ##  7     7 c3               Tb        OldLow   Yes                 0.381 
    ##  8     8 c3               Tb        OldLow   Yes                 0.211 
    ##  9     9 c3               Tb        OldLow   No                  0     
    ## 10    10 c3               Tb        OldLow   No                  0     
    ## # … with 40 more rows, and 33 more variables: $UTM.EW <dbl>,
    ## #   $UTM.NS <dbl>, $geomorf_llanura_pct <dbl>, $geomorf_pico_pct <dbl>,
    ## #   $geomorf_interfluvio_pct <dbl>, $geomorf_hombrera_pct <dbl>,
    ## #   $`geomorf_espolón/gajo_pct` <dbl>, $geomorf_vertiente_pct <dbl>,
    ## #   $geomorf_vaguada_pct <dbl>, $geomorf_piedemonte_pct <dbl>,
    ## #   $geomorf_valle_pct <dbl>, $geomorf_sima_pct <dbl>, $Al <dbl>,
    ## #   $B <dbl>, $Ca <dbl>, $Cu <dbl>, $Fe <dbl>, $K <dbl>, $Mg <dbl>,
    ## #   $Mn <dbl>, $P <dbl>, $Zn <dbl>, $N <dbl>, $N.min. <dbl>, $pH <dbl>,
    ## #   $elevacion_media <dbl>, $pendiente_media <dbl>,
…
    -   Usando la matriz de valores centrados de las variables de respuesta para obtener una ordenación en el espacio de los valores originales de las variables de respuesta (*Site scores (weighted averages of species scores)* en terminología `{vegan}`).

Mostraré a continuación ejemplos aplicados a mi familia asignada. Para agilizar, trasladaré las explicaciones más detalladas de cada resultado a los vídeos regulares que alojo en el repositorio de la asignatura, donde encontrarás las claves sobre cómo interpretar éste y otros resultados.

Nota (de nuevo): recuerda que los datos de BCI están autocorrelacionados espacialmente, por lo que los patrones que encuentres estarán siempre afectados por el incumplimiento del supuesto de independencia; no obstante, el ejercicio es bastante didáctico.

#### Ejemplo usando las matriz ambiental de variables suelo:

``` r
mi_fam_hel <- decostand(mi_fam, method = 'hellinger')
mi_fam_hel %>% tibble
```

    ## # A tibble: 50 x 1
    ##    .$Chamschi $Eugecolo $Eugegala $Eugenesi $Eugeoers $Myrcgatu $Psidfrie
    ##         <dbl>     <dbl>     <dbl>     <dbl>     <dbl>     <dbl>     <dbl>
    ##  1     0          0.323     0.661     0.433     0.382     0.354     0    
    ##  2     0          0.267     0.694     0.5       0.443     0         0    
    ##  3     0.183      0.316     0.447     0.5       0.632     0.129     0    
    ##  4     0.153      0.406     0.775     0.217     0.406     0         0    
    ##  5     0          0.416     0.683     0.258     0.542     0         0    
    ##  6     0.0958     0.235     0.851     0.318     0.332     0         0    
    ##  7     0.2        0.224     0.714     0.361     0.480     0.2       0    
    ##  8     0.213      0.326     0.550     0.477     0.550     0         0.123
    ##  9     0.375      0.397     0.592     0.324     0.459     0.187     0    
    ## 10     0.210      0.420     0.630     0.271     0.556     0         0    
    ## # … with 40 more rows

``` r
env_suelo <- bci_env_grid %>%
  st_drop_geometry %>%
  dplyr::select(matches('^[A-T,Z]|^pH$', ignore.case = F))
env_suelo %>% tibble
```

    ## # A tibble: 50 x 1
    ##     .$Al    $B   $Ca   $Cu   $Fe    $K   $Mg   $Mn    $P   $Zn    $N
    ##    <dbl> <dbl> <dbl> <dbl> <dbl> <dbl> <dbl> <dbl> <dbl> <dbl> <dbl>
    ##  1  901. 0.794 1680.  6.20  135. 142.   279.  267.  1.95  2.97  18.5
    ##  2  954. 0.670 1503.  6.03  142. 137.   280.  320.  2.25  2.53  21.6
    ##  3 1114. 0.595 1182.  6.80  157.  98.7  230.  445.  1.95  2.25  20.2
    ##  4 1024. 0.568 1558.  6.63  153.  98.4  229.  408.  2.63  2.44  20.8
    ##  5 1002. 0.399 1242.  6.44  149.  94.1  203.  251.  1.86  2.14  16.9
    ##  6 1091. 0.731 1442.  6.50  174. 132.   277.  477.  1.62  2.63  20.3
    ##  7 1184. 0.340 1111.  5.55  138. 117.   242.  301.  2.13  2.16  20.1
    ##  8 1256. 0.322 1029.  6.28  147. 104.   185.  204.  3.11  2.07  21.5
    ##  9 1122. 0.464 1230.  7.18  153. 110.   207.  415.  1.99  2.33  21.4
    ## 10 1172. 0.314 1127.  6.89  133. 105.   172.  330.  1.69  2.05  18.3
    ## # … with 40 more rows, and 2 more variables: $N.min. <dbl>, $pH <dbl>
…
